{
  "project_info": {
    "project_number": "844373419914",
    "firebase_url": "https://prueba-75b50s-default-rtdb.firebaseio.com",
    "project_id": "prueba-75b50s",
    "storage_bucket": "prueba-75b50s.appspot.com"
  },
  "client": [
    {
      "client_info": {
        "mobilesdk_app_id": "1:844373419914:android:c70ddb93c9b261995fca73",
        "android_client_info": {
          "package_name": "com.horest.horest"
        }
      },
      "oauth_client": [
        {
          "client_id": "844373419914-o1qps7tl4mdoe0enavkc1khv8vf8r8ng.apps.googleusercontent.com",
          "client_type": 1,
          "android_info": {
            "package_name": "com.horest.horest",
            "certificate_hash": "7754c7d2e3ca782666d0956690e652ed2bcf53e2"
          }
        },
        {
          "client_id": "844373419914-4bjr674d4gnth7t527d943fqdnt0higo.apps.googleusercontent.com",
          "client_type": 3
        }
      ],
      "api_key": [
        {
          "current_key": "AIzaSyC-7HjHvNCnRk8MwISGgJTqSWl2EWEyhaM"
        }
      ],
      "services": {
        "appinvite_service": {
          "other_platform_oauth_client": [
            {
              "client_id": "844373419914-4bjr674d4gnth7t527d943fqdnt0higo.apps.googleusercontent.com",
              "client_type": 3
            }
          ]
        }
      }
    }
  ],
  "configuration_version": "1"
}